M;Coso de prueba nº 1;QQQQ;21/12/2015;50.00;100.50;6
M;No quiero hacer cosaaaas;2016;30/04/2016;2.00;100.00;10
V;Toro (Zamora) (¡sí, un pueblo entero!);1xxx;07/07/2000;874.00;1200.00;37;92;83;203
A;Niña (viva) con flores (Óleo);185x;11/10/2014;150.00;900.00;Mayden Von Yemen;Pintura;N
A;I don't wanna do stuff;Símbolo de Batman;15/03/2016;65.00;120.15;Me myself;Pintura;S
